Cleaning up bad football data - Olivia Ramaeker's Blog
…
It looks better already, right? Well, there is parenthesis around the score and we don’t need them there anymore since we separated the W/L from the score. To do that, we need to get rid of the ‘(’ and the ‘)’, but NOT what’s inside of the parenthesis. This will take two lines of code to get rid of, since we don’t want to get rid of the entire thing.

badlogs  %>% 
  separate(Result, into=c("Outcome", "Score"), sep=" ") %>%
  separate(Outcome, into=c("W/L")) %>%  mutate(Score=gsub("\\(","",Score)) %>%
  mutate(Score=gsub("\\)","",Score))

## # A tibble: 1,662 × 52
##     Game Date     HomeAway Opponent `W/L` Score PassingCmp PassingAtt PassingPct
##    <dbl> <chr>    <chr>    <chr>    <chr> <chr>      <dbl>      <dbl>      <dbl>
##  1     1 8/24/19  N        Miami (… W     24-20         17         27       63  
##  2     2 9/7/19   <NA>     Tenness… W     45-0          30         36       83.3
##  3     3 9/14/19  @        Kentucky W     29-21         21         30       70  
##  4     4 9/21/19  <NA>     Tenness… W     34-3          24         34       70.6
##  5     5 9/28/19  <NA>     Towson   W     38-0          24         28       85.7
##  6     6 10/5/19  <NA>     Auburn   W     24-13         25         39       64.1
##  7     7 10/12/19 @        Louisia… L     28-42         24         44       54.5
##  8     8 10/19/19 @        South C… W     38-27         21         33       63.6
##  9     9 11/2/19  N        Georgia  L     17-24         21         33       63.6
## 10    10 11/9/19  <NA>     Vanderb… W     56-0          27         40       67.5
## # … with 1,652 more rows, and 43 more variables: PassingYds <dbl>,
## #   PassingTD <dbl>, RushingAtt <dbl>, RushingYds <dbl>, RushingAvg <dbl>,
## #   RushingTD <dbl>, OffensivePlays <dbl>, OffensiveYards <dbl>,
## #   OffenseAvg <dbl>, FirstDownPass <dbl>, FirstDownRush <dbl>,
## #   FirstDownPen <dbl>, FirstDownTotal <dbl>, Penalties <dbl>,
## #   PenaltyYds <dbl>, Fumbles <dbl>, Interceptions <dbl>, TotalTurnovers <dbl>,
## #   TeamFull <chr>, TeamURL <chr>, DefPassingCmp <dbl>, DefPassingAtt <dbl>, …
…
The first step we have to do is create a new field of our existing data so we don’t have to copy this code every single time. I named it “cleanlogs” since this is the cleaned up version of our badfootballlogs.

cleanlogs <- badlogs  %>% 
  separate(Result, into=c("Outcome", "Score"), sep=" ") %>%
  separate(Outcome, into=c("W/L")) %>%  mutate(Score=gsub("\\(","",Score)) %>%
  mutate(Score=gsub("\\)","",Score)) %>% 
  separate(Score, into =c("TeamScore", "OpponentScore"), sep = "\\-") %>%
  mutate(TeamScore = as.numeric(TeamScore), OpponentScore = as.numeric(OpponentScore))

Once we’ve done that, we have to mutate a new field and do some math… (yay…). This will be our Differential.

cleanlogs %>% 
  mutate(Differential= TeamScore-OpponentScore)

## # A tibble: 1,662 × 54
##     Game Date     HomeAway Opponent         `W/L` TeamScore OpponentScore PassingCmp
##    <dbl> <chr>    <chr>    <chr>            <chr>     <dbl>         <dbl>      <dbl>
##  1     1 8/24/19  N        Miami (FL)       W            24            20         17
##  2     2 9/7/19   <NA>     Tennessee-Martin W            45             0         30
##  3     3 9/14/19  @        Kentucky         W            29            21         21
##  4     4 9/21/19  <NA>     Tennessee        W            34             3         24
##  5     5 9/28/19  <NA>     Towson           W            38             0         24
##  6     6 10/5/19  <NA>     Auburn           W            24            13         25
##  7     7 10/12/19 @        Louisiana State  L            28            42         24
##  8     8 10/19/19 @        South Carolina   W            38            27         21
##  9     9 11/2/19  N        Georgia          L            17            24         21
## 10    10 11/9/19  <NA>     Vanderbilt       W            56             0         27
## # … with 1,652 more rows, and 46 more variables: PassingAtt <dbl>,
## #   PassingPct <dbl>, PassingYds <dbl>, PassingTD <dbl>, RushingAtt <dbl>,
## #   RushingYds <dbl>, RushingAvg <dbl>, RushingTD <dbl>, OffensivePlays <dbl>,
## #   OffensiveYards <dbl>, OffenseAvg <dbl>, FirstDownPass <dbl>,
## #   FirstDownRush <dbl>, FirstDownPen <dbl>, FirstDownTotal <dbl>,
## #   Penalties <dbl>, PenaltyYds <dbl>, Fumbles <dbl>, Interceptions <dbl>,
## #   TotalTurnovers <dbl>, TeamFull <chr>, TeamURL <chr>, DefPassingCmp <dbl>, …
…
